{"deployments":[{"id":"ef897f3b-f8ee-425c-9b1b-3d83cc49faf1","app_id":"625e727461d7b2000e5a1752","created_at":"2022-07-13T14:40:39.126Z","finished_at":"2022-07-13T14:47:57.786+00:00","status":"success","git_ref":"8c53131fd90ba8ba6b3136a37d3a4294441d4f43","previous_git_ref":"2c1cd081dcb2890a71c96281bece22dfb9f1867f","type":"auto-deploy","image":"registry-4-osc-fr1.scalingo.com/app-helios:8c53131fd90ba8b-ef897f3b-f8ee-4","registry":"registry-4-osc-fr1.scalingo.com","postdeploy_hook":"","duration":438,"pusher":{"username":"scalingo-platform-scm","email":"deploy-scm@scalingo.com","id":"us-f1de35ea-6a6d-4a25-8414-e2b34f5f61af"},"links":{"output":"https://api-osc-fr1.scalingo.com/v1/apps/625e727461d7b2000e5a1752/deployments/ef897f3b-f8ee-425c-9b1b-3d83cc49faf1/output"}},{"id":"15b257af-4941-4262-a5b6-6db921d6361c","app_id":"625e727461d7b2000e5a1752","created_at":"2022-07-12T16:31:21.698Z","finished_at":"2022-07-12T16:37:37.052+00:00","status":"success","git_ref":"2c1cd081dcb2890a71c96281bece22dfb9f1867f","previous_git_ref":"57a86517c822da9b81d36f65a1a2715e6adfe61e","type":"auto-deploy","image":"registry-4-osc-fr1.scalingo.com/app-helios:2c1cd081dcb2890-15b257af-4941-4","registry":"registry-4-osc-fr1.scalingo.com","postdeploy_hook":"","duration":374,"pusher":{"username":"scalingo-platform-scm","email":"deploy-scm@scalingo.com","id":"us-f1de35ea-6a6d-4a25-8414-e2b34f5f61af"},"links":{"output":"https://api-osc-fr1.scalingo.com/v1/apps/625e727461d7b2000e5a1752/deployments/15b257af-4941-4262-a5b6-6db921d6361c/output"}},{"id":"9de62b4d-e93b-49c9-81c3-2b77dbe31de7","app_id":"625e727461d7b2000e5a1752","created_at":"2022-07-12T08:44:30.267Z","finished_at":"2022-07-12T08:57:56.471+00:00","status":"success","git_ref":"57a86517c822da9b81d36f65a1a2715e6adfe61e","previous_git_ref":"1090b80cbfd100cd0aea0e26314927a4aa1055c8","type":"auto-deploy","image":"registry-4-osc-fr1.scalingo.com/app-helios:57a86517c822da9-9de62b4d-e93b-4","registry":"registry-4-osc-fr1.scalingo.com","postdeploy_hook":"","duration":805,"pusher":{"username":"scalingo-platform-scm","email":"deploy-scm@scalingo.com","id":"us-f1de35ea-6a6d-4a25-8414-e2b34f5f61af"},"links":{"output":"https://api-osc-fr1.scalingo.com/v1/apps/625e727461d7b2000e5a1752/deployments/9de62b4d-e93b-49c9-81c3-2b77dbe31de7/output"}},{"id":"2ba7394c-993c-467e-a98c-26791aa8768b","app_id":"625e727461d7b2000e5a1752","created_at":"2022-07-11T09:31:45.818Z","finished_at":"2022-07-11T09:37:38.581+00:00","status":"success","git_ref":"1090b80cbfd100cd0aea0e26314927a4aa1055c8","previous_git_ref":"5236ac67363e94a7b75a9a7d1580ab1facd32d56","type":"auto-deploy","image":"registry-4-osc-fr1.scalingo.com/app-helios:1090b80cbfd100c-2ba7394c-993c-4","registry":"registry-4-osc-fr1.scalingo.com","postdeploy_hook":"","duration":352,"pusher":{"username":"scalingo-platform-scm","email":"deploy-scm@scalingo.com","id":"us-f1de35ea-6a6d-4a25-8414-e2b34f5f61af"},"links":{"output":"https://api-osc-fr1.scalingo.com/v1/apps/625e727461d7b2000e5a1752/deployments/2ba7394c-993c-467e-a98c-26791aa8768b/output"}},{"id":"6dbba982-ed8b-418c-8774-bbb25cc2ad2d","app_id":"625e727461d7b2000e5a1752","created_at":"2022-07-08T13:46:04.408Z","finished_at":"2022-07-08T13:51:55.317+00:00","status":"success","git_ref":"5236ac67363e94a7b75a9a7d1580ab1facd32d56","previous_git_ref":"a3c5c9927cd85255b7d9d9865b18c22f5c69126a","type":"auto-deploy","image":"registry-4-osc-fr1.scalingo.com/app-helios:5236ac67363e94a-6dbba982-ed8b-4","registry":"registry-4-osc-fr1.scalingo.com","postdeploy_hook":"","duration":350,"pusher":{"username":"scalingo-platform-scm","email":"deploy-scm@scalingo.com","id":"us-f1de35ea-6a6d-4a25-8414-e2b34f5f61af"},"links":{"output":"https://api-osc-fr1.scalingo.com/v1/apps/625e727461d7b2000e5a1752/deployments/6dbba982-ed8b-418c-8774-bbb25cc2ad2d/output"}},{"id":"2f64361f-1498-49e9-baa8-a897f4ed0525","app_id":"625e727461d7b2000e5a1752","created_at":"2022-07-08T08:42:44.354Z","finished_at":"2022-07-08T08:49:53.255+00:00","status":"success","git_ref":"a3c5c9927cd85255b7d9d9865b18c22f5c69126a","previous_git_ref":"79195a9f036166d1763b161973d5a68ab7890956","type":"auto-deploy","image":"registry-4-osc-fr1.scalingo.com/app-helios:a3c5c9927cd8525-2f64361f-1498-4","registry":"registry-4-osc-fr1.scalingo.com","postdeploy_hook":"","duration":428,"pusher":{"username":"scalingo-platform-scm","email":"deploy-scm@scalingo.com","id":"us-f1de35ea-6a6d-4a25-8414-e2b34f5f61af"},"links":{"output":"https://api-osc-fr1.scalingo.com/v1/apps/625e727461d7b2000e5a1752/deployments/2f64361f-1498-49e9-baa8-a897f4ed0525/output"}},{"id":"ffe20b86-bd16-49fa-8738-2507dc70b0d4","app_id":"625e727461d7b2000e5a1752","created_at":"2022-07-07T15:28:17.156Z","finished_at":"2022-07-07T15:35:02.572+00:00","status":"success","git_ref":"79195a9f036166d1763b161973d5a68ab7890956","previous_git_ref":"a6a9feebf2cfafc54168f377892830b79003e2c2","type":"auto-deploy","image":"registry-4-osc-fr1.scalingo.com/app-helios:79195a9f036166d-ffe20b86-bd16-4","registry":"registry-4-osc-fr1.scalingo.com","postdeploy_hook":"","duration":404,"pusher":{"username":"scalingo-platform-scm","email":"deploy-scm@scalingo.com","id":"us-f1de35ea-6a6d-4a25-8414-e2b34f5f61af"},"links":{"output":"https://api-osc-fr1.scalingo.com/v1/apps/625e727461d7b2000e5a1752/deployments/ffe20b86-bd16-49fa-8738-2507dc70b0d4/output"}},{"id":"71a3d1f7-29b9-41af-a6fd-7e97a27c92e3","app_id":"625e727461d7b2000e5a1752","created_at":"2022-07-07T14:22:51.726Z","finished_at":"2022-07-07T14:29:20.011+00:00","status":"success","git_ref":"a6a9feebf2cfafc54168f377892830b79003e2c2","previous_git_ref":"1bbac6a7cbc31d58d53074f7446d725de898686f","type":"auto-deploy","image":"registry-4-osc-fr1.scalingo.com/app-helios:a6a9feebf2cfafc-71a3d1f7-29b9-4","registry":"registry-4-osc-fr1.scalingo.com","postdeploy_hook":"","duration":387,"pusher":{"username":"scalingo-platform-scm","email":"deploy-scm@scalingo.com","id":"us-f1de35ea-6a6d-4a25-8414-e2b34f5f61af"},"links":{"output":"https://api-osc-fr1.scalingo.com/v1/apps/625e727461d7b2000e5a1752/deployments/71a3d1f7-29b9-41af-a6fd-7e97a27c92e3/output"}},{"id":"8b33110a-8078-4f5a-a263-828a44db77c5","app_id":"625e727461d7b2000e5a1752","created_at":"2022-07-07T08:48:36.662Z","finished_at":"2022-07-07T08:57:05.319+00:00","status":"success","git_ref":"1bbac6a7cbc31d58d53074f7446d725de898686f","previous_git_ref":"cc3e851b9c1b0a7408582a7f948170bc4a7a1ff1","type":"auto-deploy","image":"registry-4-osc-fr1.scalingo.com/app-helios:1bbac6a7cbc31d5-8b33110a-8078-4","registry":"registry-4-osc-fr1.scalingo.com","postdeploy_hook":"","duration":507,"pusher":{"username":"scalingo-platform-scm","email":"deploy-scm@scalingo.com","id":"us-f1de35ea-6a6d-4a25-8414-e2b34f5f61af"},"links":{"output":"https://api-osc-fr1.scalingo.com/v1/apps/625e727461d7b2000e5a1752/deployments/8b33110a-8078-4f5a-a263-828a44db77c5/output"}},{"id":"c345eb4b-4c97-4563-a918-3645ffaef3b1","app_id":"625e727461d7b2000e5a1752","created_at":"2022-07-06T13:57:00.232Z","finished_at":"2022-07-06T14:03:01.257+00:00","status":"success","git_ref":"cc3e851b9c1b0a7408582a7f948170bc4a7a1ff1","previous_git_ref":"c317867da015f5033bb4f0d0fcc66eb78a030a0c","type":"auto-deploy","image":"registry-4-osc-fr1.scalingo.com/app-helios:cc3e851b9c1b0a7-c345eb4b-4c97-4","registry":"registry-4-osc-fr1.scalingo.com","postdeploy_hook":"","duration":360,"pusher":{"username":"scalingo-platform-scm","email":"deploy-scm@scalingo.com","id":"us-f1de35ea-6a6d-4a25-8414-e2b34f5f61af"},"links":{"output":"https://api-osc-fr1.scalingo.com/v1/apps/625e727461d7b2000e5a1752/deployments/c345eb4b-4c97-4563-a918-3645ffaef3b1/output"}},{"id":"36cd5fd2-e846-4c01-bceb-9ba4b7f2db8f","app_id":"625e727461d7b2000e5a1752","created_at":"2022-07-06T08:46:04.913Z","finished_at":"2022-07-06T08:54:13.249+00:00","status":"success","git_ref":"c317867da015f5033bb4f0d0fcc66eb78a030a0c","previous_git_ref":"4cb2adbe06461bea1789024180b5561d8069f90f","type":"auto-deploy","image":"registry-4-osc-fr1.scalingo.com/app-helios:c317867da015f50-36cd5fd2-e846-4","registry":"registry-4-osc-fr1.scalingo.com","postdeploy_hook":"","duration":487,"pusher":{"username":"scalingo-platform-scm","email":"deploy-scm@scalingo.com","id":"us-f1de35ea-6a6d-4a25-8414-e2b34f5f61af"},"links":{"output":"https://api-osc-fr1.scalingo.com/v1/apps/625e727461d7b2000e5a1752/deployments/36cd5fd2-e846-4c01-bceb-9ba4b7f2db8f/output"}},{"id":"9afa190e-14b6-4d37-9cb0-8fb1d116cef5","app_id":"625e727461d7b2000e5a1752","created_at":"2022-07-05T16:29:20.492Z","finished_at":"2022-07-05T16:42:30.772+00:00","status":"success","git_ref":"4cb2adbe06461bea1789024180b5561d8069f90f","previous_git_ref":"c3e893aadde45f5b4216fcc4264c2bc9adb2609e","type":"auto-deploy","image":"registry-4-osc-fr1.scalingo.com/app-helios:4cb2adbe06461be-9afa190e-14b6-4","registry":"registry-4-osc-fr1.scalingo.com","postdeploy_hook":"","duration":789,"pusher":{"username":"scalingo-platform-scm","email":"deploy-scm@scalingo.com","id":"us-f1de35ea-6a6d-4a25-8414-e2b34f5f61af"},"links":{"output":"https://api-osc-fr1.scalingo.com/v1/apps/625e727461d7b2000e5a1752/deployments/9afa190e-14b6-4d37-9cb0-8fb1d116cef5/output"}},{"id":"2f647ab9-adae-4b5a-9ad0-bddfa30dda25","app_id":"625e727461d7b2000e5a1752","created_at":"2022-07-05T15:17:52.306Z","finished_at":"2022-07-05T15:24:09.339+00:00","status":"success","git_ref":"c3e893aadde45f5b4216fcc4264c2bc9adb2609e","previous_git_ref":"24bd415ebff7fc046409c191be5fc090cc7a56b5","type":"auto-deploy","image":"registry-4-osc-fr1.scalingo.com/app-helios:c3e893aadde45f5-2f647ab9-adae-4","registry":"registry-4-osc-fr1.scalingo.com","postdeploy_hook":"","duration":376,"pusher":{"username":"scalingo-platform-scm","email":"deploy-scm@scalingo.com","id":"us-f1de35ea-6a6d-4a25-8414-e2b34f5f61af"},"links":{"output":"https://api-osc-fr1.scalingo.com/v1/apps/625e727461d7b2000e5a1752/deployments/2f647ab9-adae-4b5a-9ad0-bddfa30dda25/output"}},{"id":"a1a40c5b-23ee-412f-bc48-2b1ad67a5775","app_id":"625e727461d7b2000e5a1752","created_at":"2022-07-05T13:38:43.496Z","finished_at":"2022-07-05T13:45:58.578+00:00","status":"success","git_ref":"24bd415ebff7fc046409c191be5fc090cc7a56b5","previous_git_ref":"88634409057e4544cb090ba27222ca83473d6a71","type":"auto-deploy","image":"registry-4-osc-fr1.scalingo.com/app-helios:24bd415ebff7fc0-a1a40c5b-23ee-4","registry":"registry-4-osc-fr1.scalingo.com","postdeploy_hook":"","duration":434,"pusher":{"username":"scalingo-platform-scm","email":"deploy-scm@scalingo.com","id":"us-f1de35ea-6a6d-4a25-8414-e2b34f5f61af"},"links":{"output":"https://api-osc-fr1.scalingo.com/v1/apps/625e727461d7b2000e5a1752/deployments/a1a40c5b-23ee-412f-bc48-2b1ad67a5775/output"}},{"id":"49ff3a28-b1fe-475d-88b6-cb49e3238962","app_id":"625e727461d7b2000e5a1752","created_at":"2022-07-04T14:12:13.397Z","finished_at":"2022-07-04T14:24:49.958+00:00","status":"success","git_ref":"88634409057e4544cb090ba27222ca83473d6a71","previous_git_ref":"9a0374aa9fbbc81e5c9635cbe4d52385b81d1708","type":"auto-deploy","image":"registry-4-osc-fr1.scalingo.com/app-helios:88634409057e454-49ff3a28-b1fe-4","registry":"registry-4-osc-fr1.scalingo.com","postdeploy_hook":"","duration":756,"pusher":{"username":"scalingo-platform-scm","email":"deploy-scm@scalingo.com","id":"us-f1de35ea-6a6d-4a25-8414-e2b34f5f61af"},"links":{"output":"https://api-osc-fr1.scalingo.com/v1/apps/625e727461d7b2000e5a1752/deployments/49ff3a28-b1fe-475d-88b6-cb49e3238962/output"}},{"id":"d36b774c-875b-4e9f-8068-ad77ead14720","app_id":"625e727461d7b2000e5a1752","created_at":"2022-07-04T08:01:15.623Z","finished_at":"2022-07-04T08:10:55.155+00:00","status":"success","git_ref":"9a0374aa9fbbc81e5c9635cbe4d52385b81d1708","previous_git_ref":"2093560c64a468336413052104134deb08ba3e91","type":"auto-deploy","image":"registry-4-osc-fr1.scalingo.com/app-helios:9a0374aa9fbbc81-d36b774c-875b-4","registry":"registry-4-osc-fr1.scalingo.com","postdeploy_hook":"","duration":578,"pusher":{"username":"scalingo-platform-scm","email":"deploy-scm@scalingo.com","id":"us-f1de35ea-6a6d-4a25-8414-e2b34f5f61af"},"links":{"output":"https://api-osc-fr1.scalingo.com/v1/apps/625e727461d7b2000e5a1752/deployments/d36b774c-875b-4e9f-8068-ad77ead14720/output"}},{"id":"39ba8520-4382-469c-b622-e4bd98f48ced","app_id":"625e727461d7b2000e5a1752","created_at":"2022-07-01T15:34:16.869Z","finished_at":"2022-07-01T15:49:11.436+00:00","status":"success","git_ref":"2093560c64a468336413052104134deb08ba3e91","previous_git_ref":"2311b056553861c0a9b0f633da97f37267d77b38","type":"auto-deploy","image":"registry-4-osc-fr1.scalingo.com/app-helios:2093560c64a4683-39ba8520-4382-4","registry":"registry-4-osc-fr1.scalingo.com","postdeploy_hook":"","duration":894,"pusher":{"username":"scalingo-platform-scm","email":"deploy-scm@scalingo.com","id":"us-f1de35ea-6a6d-4a25-8414-e2b34f5f61af"},"links":{"output":"https://api-osc-fr1.scalingo.com/v1/apps/625e727461d7b2000e5a1752/deployments/39ba8520-4382-469c-b622-e4bd98f48ced/output"}},{"id":"09b275f3-9679-42c7-9233-dcc400a3d8ab","app_id":"625e727461d7b2000e5a1752","created_at":"2022-07-01T12:26:24.606Z","finished_at":"2022-07-01T12:32:48.755+00:00","status":"success","git_ref":"2311b056553861c0a9b0f633da97f37267d77b38","previous_git_ref":"24f10fe1d836ed06f48183f60ab44b0c45ad2462","type":"auto-deploy","image":"registry-4-osc-fr1.scalingo.com/app-helios:2311b056553861c-09b275f3-9679-4","registry":"registry-4-osc-fr1.scalingo.com","postdeploy_hook":"","duration":383,"pusher":{"username":"scalingo-platform-scm","email":"deploy-scm@scalingo.com","id":"us-f1de35ea-6a6d-4a25-8414-e2b34f5f61af"},"links":{"output":"https://api-osc-fr1.scalingo.com/v1/apps/625e727461d7b2000e5a1752/deployments/09b275f3-9679-42c7-9233-dcc400a3d8ab/output"}},{"id":"89c6e80c-836e-4e0d-b1db-80aee629b556","app_id":"625e727461d7b2000e5a1752","created_at":"2022-07-01T09:58:53.221Z","finished_at":"2022-07-01T10:04:55.949+00:00","status":"success","git_ref":"24f10fe1d836ed06f48183f60ab44b0c45ad2462","previous_git_ref":"7c207b85a49eae6b1b645db77f61e90c0a2247b2","type":"auto-deploy","image":"registry-4-osc-fr1.scalingo.com/app-helios:24f10fe1d836ed0-89c6e80c-836e-4","registry":"registry-4-osc-fr1.scalingo.com","postdeploy_hook":"","duration":361,"pusher":{"username":"scalingo-platform-scm","email":"deploy-scm@scalingo.com","id":"us-f1de35ea-6a6d-4a25-8414-e2b34f5f61af"},"links":{"output":"https://api-osc-fr1.scalingo.com/v1/apps/625e727461d7b2000e5a1752/deployments/89c6e80c-836e-4e0d-b1db-80aee629b556/output"}},{"id":"13724e36-bd86-4105-bc7d-0ee380db313d","app_id":"625e727461d7b2000e5a1752","created_at":"2022-07-01T08:53:18.836Z","finished_at":"2022-07-01T09:08:43.614+00:00","status":"success","git_ref":"7c207b85a49eae6b1b645db77f61e90c0a2247b2","previous_git_ref":"a28fc2de960ba82e69adc0ee998d2a33fb139ab8","type":"auto-deploy","image":"registry-4-osc-fr1.scalingo.com/app-helios:7c207b85a49eae6-13724e36-bd86-4","registry":"registry-4-osc-fr1.scalingo.com","postdeploy_hook":"","duration":924,"pusher":{"username":"scalingo-platform-scm","email":"deploy-scm@scalingo.com","id":"us-f1de35ea-6a6d-4a25-8414-e2b34f5f61af"},"links":{"output":"https://api-osc-fr1.scalingo.com/v1/apps/625e727461d7b2000e5a1752/deployments/13724e36-bd86-4105-bc7d-0ee380db313d/output"}}],"meta":{"pagination":{"current_page":1,"next_page":2,"previous_page":null,"total_pages":4,"total_count":80}}}